Microsoft Windows [Version 10.0.17134.590]
(c) 2018 Microsoft Corporation. All rights reserved.

C:\Users\alex.tse>d:

D:\>cd openshift
The system cannot find the path specified.

D:\>cd ax

D:\ax>cd openshift

D:\ax\openshift>ls
'ls' is not recognized as an internal or external command,
operable program or batch file.

D:\ax\openshift>dir/w
 Volume in drive D is New Volume
 Volume Serial Number is B6CA-F28F

 Directory of D:\ax\openshift

[.]                                              [..]
1.5 Oracle Database Initialization (EPOS_PROD)   eab-demo-oracle-156.sql
eab-demo-oracle-156@eadmin_eabdemo.sql           eab-demo-oracle-156@epos_eabdemo.sql
ease-api20171220oc.txt                           ease-api20180613oc.txt
ease-oracle-156@epos_prod~1.sql                  ease-oracle-156@system.sql
ease-oracle-156@system~1.sql                     envar_eabdemo-api.txt
envar_ease-admin(20171220).txt                   envar_ease-admin(20180103).txt
envar_ease-admin(20180111).txt                   envar_ease-admin.txt
envar_ease-api(20171220).txt                     envar_ease-api.txt
envar_ease-api20171221.txt                       envar_ease-api20180111.txt
envar_ease-web.txt                               javaImport(eab-demo).txt
javaImport.txt                                   Naming Convention.docx
new 2.txt                                        [oc tools-20190114T071833Z-001]
oc tools-20190114T071833Z-001.zip                oc.exe
ocbackup.exe                                     [openshift_config]
wholeday20171220log.txt                          wholeday20180111log.txt
              28 File(s)    238,209,161 bytes
               4 Dir(s)  937,086,361,600 bytes free

D:\ax\openshift>oc login https://api.pro-ap-southeast-2.openshift.com --token=hMCHru65zXFTeDSllBmgP7ltrCfSFU4Zg65L2hPIT20
Logged into "https://api.pro-ap-southeast-2.openshift.com:443" as "eabrhat" using the token provided.

You have access to the following projects and can switch between them with 'oc project <projectname>':

  * mongodb
    projectservice

Using project "mongodb".

D:\ax\openshift>oc project projectservice
Now using project "projectservice" on server "https://api.pro-ap-southeast-2.openshift.com:443".

D:\ax\openshift>mvn
'mvn' is not recognized as an internal or external command,
operable program or batch file.

D:\ax\openshift>cd ..

D:\ax>cd 20190220

D:\ax\20190220>dir/w
 Volume in drive D is New Volume
 Volume Serial Number is B6CA-F28F

 Directory of D:\ax\20190220

[.]                            [..]                           [eabtestbot01-src]
eabtestbot01-src.zip           openshift-online-payment.PNG   [rh]
[rh2]                          [undesirable-apparatus]        undesirable-apparatus.zip
               3 File(s)      3,372,640 bytes
               6 Dir(s)  937,086,361,600 bytes free

D:\ax\20190220>cd rh2

D:\ax\20190220\rh2>dir/w
 Volume in drive D is New Volume
 Volume Serial Number is B6CA-F28F

 Directory of D:\ax\20190220\rh2

[.]                [..]               .gitignore         [projectservice01]
               1 File(s)            301 bytes
               3 Dir(s)  937,086,361,600 bytes free

D:\ax\20190220\rh2>cd projectservice01

D:\ax\20190220\rh2\projectservice01>dir/w
 Volume in drive D is New Volume
 Volume Serial Number is B6CA-F28F

 Directory of D:\ax\20190220\rh2\projectservice01

[.]          [..]         .classpath   .project     [.settings]  [.vertx]     pom.xml      [src]        [target]
               3 File(s)          3,501 bytes
               6 Dir(s)  937,086,361,600 bytes free

D:\ax\20190220\rh2\projectservice01>