login as: root
root@192.168.222.214's password:
Last login: Tue Jul  2 09:51:16 2019 from 192.168.223.159
[root@vm-OpenShift-POC-3 ~]# pvs
  PV         VG        Fmt  Attr PSize   PFree
  /dev/sda2  rhel      lvm2 a--  299.00g 141.12g
  /dev/sda3  rhel      lvm2 a--  300.00g      0
  /dev/sdb1  docker-vg lvm2 a--  200.00g 120.00g
[root@vm-OpenShift-POC-3 ~]# lvs
  LV          VG        Attr       LSize   Pool Origin Data%  Meta%  Move Log Cp                                                                             y%Sync Convert
  docker-pool docker-vg twi-aot---  79.59g             55.54  4.29                                                                                           
  home        rhel      -wi-ao----  50.00g                                                                                                                   
  root        rhel      -wi-ao---- 400.00g                                                                                                                   
  swap        rhel      -wi-ao----   7.88g                                                                                                                   
[root@vm-OpenShift-POC-3 ~]# df -h
Filesystem             Size  Used Avail Use% Mounted on
/dev/mapper/rhel-root  400G   92G  308G  23% /
devtmpfs                11G     0   11G   0% /dev
tmpfs                   11G   84K   11G   1% /dev/shm
tmpfs                   11G  693M   11G   7% /run
tmpfs                   11G     0   11G   0% /sys/fs/cgroup
/dev/sda1             1014M  172M  843M  17% /boot
/dev/mapper/rhel-home   50G   38M   50G   1% /home
tmpfs                  2.2G   24K  2.2G   1% /run/user/42
tmpfs                  2.2G     0  2.2G   0% /run/user/0
tmpfs                   11G   16K   11G   1% /var/lib/origin/openshift.local.vol                                                                             umes/pods/4cb3c01f-997e-11e9-97c9-00155dde16b4/volumes/kubernetes.io~secret/defa                                                                             ult-token-b8phq
tmpfs                   11G   16K   11G   1% /var/lib/origin/openshift.local.vol                                                                             umes/pods/4be3432f-997e-11e9-97c9-00155dde16b4/volumes/kubernetes.io~secret/defa                                                                             ult-token-b8phq
tmpfs                   11G   16K   11G   1% /var/lib/origin/openshift.local.vol                                                                             umes/pods/4cf4e35d-997e-11e9-97c9-00155dde16b4/volumes/kubernetes.io~secret/defa                                                                             ult-token-b8phq
tmpfs                   11G   16K   11G   1% /var/lib/origin/openshift.local.vol                                                                             umes/pods/4c299b8a-997e-11e9-97c9-00155dde16b4/volumes/kubernetes.io~secret/defa                                                                             ult-token-b8phq
tmpfs                   11G   16K   11G   1% /var/lib/origin/openshift.local.vol                                                                             umes/pods/8a7852c5-9986-11e9-97c9-00155dde16b4/volumes/kubernetes.io~secret/defa                                                                             ult-token-tjhb1
tmpfs                   11G   16K   11G   1% /var/lib/origin/openshift.local.vol                                                                             umes/pods/5da19446-998e-11e9-97c9-00155dde16b4/volumes/kubernetes.io~secret/defa                                                                             ult-token-tjhb1
tmpfs                   11G   16K   11G   1% /var/lib/origin/openshift.local.vol                                                                             umes/pods/34d8f72e-9990-11e9-97c9-00155dde16b4/volumes/kubernetes.io~secret/defa                                                                             ult-token-2pkfw
tmpfs                   11G   16K   11G   1% /var/lib/origin/openshift.local.vol                                                                             umes/pods/35fd06bd-9990-11e9-97c9-00155dde16b4/volumes/kubernetes.io~secret/defa                                                                             ult-token-2pkfw
tmpfs                   11G   16K   11G   1% /var/lib/origin/openshift.local.vol                                                                             umes/pods/41e43ce0-9990-11e9-97c9-00155dde16b4/volumes/kubernetes.io~secret/defa                                                                             ult-token-fq8n1
tmpfs                   11G   16K   11G   1% /var/lib/origin/openshift.local.vol                                                                             umes/pods/c79a4a22-9c71-11e9-97c9-00155dde16b4/volumes/kubernetes.io~secret/defa                                                                             ult-token-vx1vc
tmpfs                   11G  8.0K   11G   1% /var/lib/origin/openshift.local.vol                                                                             umes/pods/462128d0-9ca1-11e9-97c9-00155dde16b4/volumes/kubernetes.io~secret/volu                                                                             me-p4mg6
tmpfs                   11G   16K   11G   1% /var/lib/origin/openshift.local.vol                                                                             umes/pods/462128d0-9ca1-11e9-97c9-00155dde16b4/volumes/kubernetes.io~secret/defa                                                                             ult-token-tjhb1
tmpfs                   11G   16K   11G   1% /var/lib/origin/openshift.local.vol                                                                             umes/pods/f6378f2c-9ca9-11e9-97c9-00155dde16b4/volumes/kubernetes.io~secret/defa                                                                             ult-token-mzdz7
tmpfs                   11G   16K   11G   1% /var/lib/origin/openshift.local.vol                                                                             umes/pods/f95da370-9ca9-11e9-97c9-00155dde16b4/volumes/kubernetes.io~secret/defa                                                                             ult-token-mzdz7
tmpfs                   11G   16K   11G   1% /var/lib/origin/openshift.local.vol                                                                             umes/pods/016c6628-9cb0-11e9-97c9-00155dde16b4/volumes/kubernetes.io~secret/defa                                                                             ult-token-mzdz7
tmpfs                   11G  8.0K   11G   1% /var/lib/origin/openshift.local.vol                                                                             umes/pods/016c6628-9cb0-11e9-97c9-00155dde16b4/volumes/kubernetes.io~secret/volu                                                                             me-4xqw1
tmpfs                   11G   16K   11G   1% /var/lib/origin/openshift.local.vol                                                                             umes/pods/0250b494-9cb3-11e9-97c9-00155dde16b4/volumes/kubernetes.io~secret/defa                                                                             ult-token-mzdz7
tmpfs                   11G   16K   11G   1% /var/lib/origin/openshift.local.vol                                                                             umes/pods/0b81d66f-9d40-11e9-97c9-00155dde16b4/volumes/kubernetes.io~secret/buil                                                                             der-token-dd3ds
tmpfs                   11G  8.0K   11G   1% /var/lib/origin/openshift.local.vol                                                                             umes/pods/0b81d66f-9d40-11e9-97c9-00155dde16b4/volumes/kubernetes.io~secret/axas                                                                             g-git-auth-source
tmpfs                   11G  8.0K   11G   1% /var/lib/origin/openshift.local.vol                                                                             umes/pods/0b81d66f-9d40-11e9-97c9-00155dde16b4/volumes/kubernetes.io~secret/buil                                                                             der-dockercfg-gk2qc-pull
tmpfs                   11G  8.0K   11G   1% /var/lib/origin/openshift.local.vol                                                                             umes/pods/0b81d66f-9d40-11e9-97c9-00155dde16b4/volumes/kubernetes.io~secret/buil                                                                             der-dockercfg-gk2qc-push
[root@vm-OpenShift-POC-3 ~]#
