Broadband
116.92.187.66-70
255.255.255.252
116.92.187.65
subnet mask: 255.255.255.248
Gateway IP: 116.92.187.65
IP range: 116.92.187.66 - 69

DNS1: 175.45.33.251
DNS2: 59.152.248.251
DNS3: 202.130.97.65
DNS4: 202.130.97.66

DC01-IT-HV08 
iDRAC: 192.168.222.41

Firewall
192.168.225.254
User: admin / eabadmin
Pass: tiifEAB2101

RDP IP: 116.92.187.67 (192.168.225.111)
Username: administrator
Password: Eab2018)%

We could like to assign Wildcard DNS as:
ocp.eabdc

and the admin host name please set as:
admin.ocp.eabdc

